name = "Kyrandian Nights Project"
path = "mod/Kyrandian Nights Project"
replace_path = "history/provinces"
replace_path = "history/titles"
replace_path = "history/wars"
replace_path = "history/technology"
replace_path = "history/characters"
replace_path = "common/landed_titles"
replace_path = "common/trade_routes"
replace_path = "common/province_setup"